EESchema Schematic File Version 2
LIBS:power
LIBS:device
LIBS:transistors
LIBS:conn
LIBS:linear
LIBS:regul
LIBS:74xx
LIBS:cmos4000
LIBS:adc-dac
LIBS:memory
LIBS:xilinx
LIBS:microcontrollers
LIBS:dsp
LIBS:microchip
LIBS:analog_switches
LIBS:motorola
LIBS:texas
LIBS:intel
LIBS:audio
LIBS:interface
LIBS:digital-audio
LIBS:philips
LIBS:display
LIBS:cypress
LIBS:siliconi
LIBS:opto
LIBS:atmel
LIBS:contrib
LIBS:valves
LIBS:MCP23017
LIBS:fe_interface-cache
EELAYER 25 0
EELAYER END
$Descr USLetter 11000 8500
encoding utf-8
Sheet 1 1
Title "Front-End Interface"
Date "2018-05-02"
Rev "1.0.0"
Comp "Gullickson Laboratories"
Comment1 ""
Comment2 ""
Comment3 ""
Comment4 ""
$EndDescr
$Comp
L CONN_02X20 P?
U 1 1 5AEA2F27
P 3450 3250
F 0 "P?" H 3450 4300 50  0000 C CNN
F 1 "CONN_02X20" V 3450 3250 50  0000 C CNN
F 2 "" H 3450 2300 50  0000 C CNN
F 3 "" H 3450 2300 50  0000 C CNN
	1    3450 3250
	1    0    0    -1  
$EndComp
$Comp
L CONN_01X02 P?
U 1 1 5AEA30C0
P 2550 4700
F 0 "P?" H 2550 4850 50  0000 C CNN
F 1 "CONN_01X02" V 2650 4700 50  0000 C CNN
F 2 "" H 2550 4700 50  0000 C CNN
F 3 "" H 2550 4700 50  0000 C CNN
	1    2550 4700
	-1   0    0    1   
$EndComp
$Comp
L RELAY_2RT K?
U 1 1 5AEA315C
P 3800 6100
F 0 "K?" H 3750 6500 50  0000 C CNN
F 1 "RELAY_2RT" H 3950 5600 50  0000 C CNN
F 2 "" H 3800 6100 50  0000 C CNN
F 3 "" H 3800 6100 50  0000 C CNN
	1    3800 6100
	1    0    0    -1  
$EndComp
$Comp
L MCP23017 U?
U 1 1 5AEA32BB
P 5600 3300
F 0 "U?" H 5050 4400 50  0000 C CNN
F 1 "MCP23017" H 6050 2200 50  0000 C CNN
F 2 "MODULE" H 5100 2200 50  0001 C CNN
F 3 "DOCUMENTATION" H 5600 3250 50  0001 C CNN
	1    5600 3300
	1    0    0    -1  
$EndComp
Wire Wire Line
	4650 3800 4300 3800
Wire Wire Line
	4650 3900 4300 3900
Text Label 4300 3800 0    60   ~ 0
SDA
Text Label 4300 3900 0    60   ~ 0
SLC
Wire Wire Line
	2550 2400 2850 2400
Wire Wire Line
	2850 2400 3200 2400
Wire Wire Line
	2550 2500 2850 2500
Wire Wire Line
	2850 2500 3200 2500
Text Label 2550 2400 0    60   ~ 0
SDA
Text Label 2550 2500 0    60   ~ 0
SLC
$Comp
L R R?
U 1 1 5AEA3841
P 2850 2700
F 0 "R?" V 2930 2700 50  0000 C CNN
F 1 "R" V 2850 2700 50  0000 C CNN
F 2 "" V 2780 2700 50  0000 C CNN
F 3 "" H 2850 2700 50  0000 C CNN
	1    2850 2700
	1    0    0    -1  
$EndComp
$Comp
L R R?
U 1 1 5AEA386B
P 2850 2200
F 0 "R?" V 2930 2200 50  0000 C CNN
F 1 "R" V 2850 2200 50  0000 C CNN
F 2 "" V 2780 2200 50  0000 C CNN
F 3 "" H 2850 2200 50  0000 C CNN
	1    2850 2200
	1    0    0    -1  
$EndComp
Wire Wire Line
	3200 2050 3200 2300
Wire Wire Line
	2400 2050 2850 2050
Wire Wire Line
	2850 2050 3200 2050
Wire Wire Line
	2400 2050 2400 2850
Wire Wire Line
	2400 2850 2850 2850
Connection ~ 2850 2050
Wire Wire Line
	2850 2550 2850 2500
Connection ~ 2850 2500
Wire Wire Line
	2850 2350 2850 2400
Connection ~ 2850 2400
$Comp
L VCC #PWR?
U 1 1 5AEA3E03
P 2750 4450
F 0 "#PWR?" H 2750 4300 50  0001 C CNN
F 1 "VCC" H 2750 4600 50  0000 C CNN
F 2 "" H 2750 4450 50  0000 C CNN
F 3 "" H 2750 4450 50  0000 C CNN
	1    2750 4450
	1    0    0    -1  
$EndComp
$Comp
L GND #PWR?
U 1 1 5AEA3EDD
P 2750 4950
F 0 "#PWR?" H 2750 4700 50  0001 C CNN
F 1 "GND" H 2750 4800 50  0000 C CNN
F 2 "" H 2750 4950 50  0000 C CNN
F 3 "" H 2750 4950 50  0000 C CNN
	1    2750 4950
	1    0    0    -1  
$EndComp
Wire Wire Line
	2750 4650 2750 4450
Wire Wire Line
	2750 4750 2750 4950
$Comp
L VCC #PWR?
U 1 1 5AEA40E9
P 3850 2050
F 0 "#PWR?" H 3850 1900 50  0001 C CNN
F 1 "VCC" H 3850 2200 50  0000 C CNN
F 2 "" H 3850 2050 50  0000 C CNN
F 3 "" H 3850 2050 50  0000 C CNN
	1    3850 2050
	1    0    0    -1  
$EndComp
Wire Wire Line
	3850 2400 3700 2400
Wire Wire Line
	3850 2050 3850 2300
Wire Wire Line
	3850 2300 3850 2400
Wire Wire Line
	3700 2300 3850 2300
Connection ~ 3850 2300
$Comp
L GND #PWR?
U 1 1 5AEA4233
P 3850 4450
F 0 "#PWR?" H 3850 4200 50  0001 C CNN
F 1 "GND" H 3850 4300 50  0000 C CNN
F 2 "" H 3850 4450 50  0000 C CNN
F 3 "" H 3850 4450 50  0000 C CNN
	1    3850 4450
	1    0    0    -1  
$EndComp
Wire Wire Line
	3700 2500 3850 2500
Wire Wire Line
	3850 2500 3850 2900
Wire Wire Line
	3850 2900 3850 3200
Wire Wire Line
	3850 3200 3850 3700
Wire Wire Line
	3850 3700 3850 3900
Wire Wire Line
	3850 3900 3850 4450
Wire Wire Line
	3700 2900 3850 2900
Connection ~ 3850 2900
Wire Wire Line
	3700 3200 3850 3200
Connection ~ 3850 3200
Wire Wire Line
	3700 3700 3850 3700
Connection ~ 3850 3700
Wire Wire Line
	3700 3900 3850 3900
Connection ~ 3850 3900
$Comp
L GND #PWR?
U 1 1 5AEA43EA
P 3050 4450
F 0 "#PWR?" H 3050 4200 50  0001 C CNN
F 1 "GND" H 3050 4300 50  0000 C CNN
F 2 "" H 3050 4450 50  0000 C CNN
F 3 "" H 3050 4450 50  0000 C CNN
	1    3050 4450
	1    0    0    -1  
$EndComp
Wire Wire Line
	3200 2700 3050 2700
Wire Wire Line
	3050 2700 3050 3500
Wire Wire Line
	3050 3500 3050 4200
Wire Wire Line
	3050 4200 3050 4450
Wire Wire Line
	3200 3500 3050 3500
Connection ~ 3050 3500
Wire Wire Line
	3200 4200 3050 4200
Connection ~ 3050 4200
$Comp
L VCC #PWR?
U 1 1 5AEA49E3
P 5600 1650
F 0 "#PWR?" H 5600 1500 50  0001 C CNN
F 1 "VCC" H 5600 1800 50  0000 C CNN
F 2 "" H 5600 1650 50  0000 C CNN
F 3 "" H 5600 1650 50  0000 C CNN
	1    5600 1650
	1    0    0    -1  
$EndComp
Wire Wire Line
	5600 1650 5600 1900
Wire Wire Line
	5600 1900 5600 1950
$Comp
L GND #PWR?
U 1 1 5AEA4CD0
P 4350 3250
F 0 "#PWR?" H 4350 3000 50  0001 C CNN
F 1 "GND" H 4350 3100 50  0000 C CNN
F 2 "" H 4350 3250 50  0000 C CNN
F 3 "" H 4350 3250 50  0000 C CNN
	1    4350 3250
	1    0    0    -1  
$EndComp
Wire Wire Line
	4650 2850 4350 2850
Wire Wire Line
	4350 2850 4350 2950
Wire Wire Line
	4350 2950 4350 3050
Wire Wire Line
	4350 3050 4350 3250
Wire Wire Line
	4650 2950 4350 2950
Connection ~ 4350 2950
Wire Wire Line
	4650 3050 4350 3050
Connection ~ 4350 3050
$Comp
L GND #PWR?
U 1 1 5AEA4FE2
P 5600 4900
F 0 "#PWR?" H 5600 4650 50  0001 C CNN
F 1 "GND" H 5600 4750 50  0000 C CNN
F 2 "" H 5600 4900 50  0000 C CNN
F 3 "" H 5600 4900 50  0000 C CNN
	1    5600 4900
	1    0    0    -1  
$EndComp
Wire Wire Line
	5600 4650 5600 4900
Wire Wire Line
	4650 2400 4650 1900
Wire Wire Line
	4650 1900 5600 1900
Connection ~ 5600 1900
$Comp
L CONN_01X16 P?
U 1 1 5AEA551D
P 9200 2700
F 0 "P?" H 9200 3550 50  0000 C CNN
F 1 "CONN_01X16" V 9300 2700 50  0000 C CNN
F 2 "" H 9200 2700 50  0000 C CNN
F 3 "" H 9200 2700 50  0000 C CNN
	1    9200 2700
	1    0    0    -1  
$EndComp
$Comp
L CONN_01X02 P?
U 1 1 5AEA55B7
P 4450 6900
F 0 "P?" H 4450 7050 50  0000 C CNN
F 1 "CONN_01X02" V 4550 6900 50  0000 C CNN
F 2 "" H 4450 6900 50  0000 C CNN
F 3 "" H 4450 6900 50  0000 C CNN
	1    4450 6900
	1    0    0    -1  
$EndComp
Wire Wire Line
	6550 2400 6550 1950
Wire Wire Line
	6550 1950 9000 1950
Wire Wire Line
	6550 2500 6600 2500
Wire Wire Line
	6600 2500 6600 2150
Wire Wire Line
	6600 2150 9000 2150
Wire Wire Line
	6550 2600 6650 2600
Wire Wire Line
	6650 2600 6650 2350
Wire Wire Line
	6650 2350 9000 2350
Wire Wire Line
	6550 2700 6700 2700
Wire Wire Line
	6700 2700 6700 2550
Wire Wire Line
	6700 2550 9000 2550
Wire Wire Line
	6550 2800 6750 2800
Wire Wire Line
	6750 2800 6750 2750
Wire Wire Line
	6750 2750 9000 2750
$Comp
L GND #PWR?
U 1 1 5AEA5BF5
P 7800 3850
F 0 "#PWR?" H 7800 3600 50  0001 C CNN
F 1 "GND" H 7800 3700 50  0000 C CNN
F 2 "" H 7800 3850 50  0000 C CNN
F 3 "" H 7800 3850 50  0000 C CNN
	1    7800 3850
	1    0    0    -1  
$EndComp
Wire Wire Line
	7800 2950 9000 2950
$Comp
L R R?
U 1 1 5AEA5DB8
P 7800 3300
F 0 "R?" V 7880 3300 50  0000 C CNN
F 1 "10k" V 7800 3300 50  0000 C CNN
F 2 "" V 7730 3300 50  0000 C CNN
F 3 "" H 7800 3300 50  0000 C CNN
	1    7800 3300
	1    0    0    -1  
$EndComp
$Comp
L R R?
U 1 1 5AEA6257
P 8250 2050
F 0 "R?" V 8330 2050 50  0000 C CNN
F 1 "200" V 8250 2050 50  0000 C CNN
F 2 "" V 8180 2050 50  0000 C CNN
F 3 "" H 8250 2050 50  0000 C CNN
	1    8250 2050
	0    1    1    0   
$EndComp
$Comp
L R R?
U 1 1 5AEA6308
P 8250 2250
F 0 "R?" V 8330 2250 50  0000 C CNN
F 1 "200" V 8250 2250 50  0000 C CNN
F 2 "" V 8180 2250 50  0000 C CNN
F 3 "" H 8250 2250 50  0000 C CNN
	1    8250 2250
	0    1    1    0   
$EndComp
$Comp
L R R?
U 1 1 5AEA633D
P 8250 2450
F 0 "R?" V 8330 2450 50  0000 C CNN
F 1 "200" V 8250 2450 50  0000 C CNN
F 2 "" V 8180 2450 50  0000 C CNN
F 3 "" H 8250 2450 50  0000 C CNN
	1    8250 2450
	0    1    1    0   
$EndComp
$Comp
L R R?
U 1 1 5AEA6375
P 8250 2650
F 0 "R?" V 8330 2650 50  0000 C CNN
F 1 "200" V 8250 2650 50  0000 C CNN
F 2 "" V 8180 2650 50  0000 C CNN
F 3 "" H 8250 2650 50  0000 C CNN
	1    8250 2650
	0    1    1    0   
$EndComp
$Comp
L R R?
U 1 1 5AEA63B0
P 8250 2850
F 0 "R?" V 8330 2850 50  0000 C CNN
F 1 "200" V 8250 2850 50  0000 C CNN
F 2 "" V 8180 2850 50  0000 C CNN
F 3 "" H 8250 2850 50  0000 C CNN
	1    8250 2850
	0    1    1    0   
$EndComp
Wire Wire Line
	9000 2050 8400 2050
Wire Wire Line
	8100 2050 8100 2250
Wire Wire Line
	8100 2250 8100 2450
Wire Wire Line
	8100 2450 8100 2650
Wire Wire Line
	8100 2650 8100 2850
Wire Wire Line
	8100 2850 8100 3450
Connection ~ 8100 2250
Connection ~ 8100 2450
Connection ~ 8100 2650
Connection ~ 8100 2850
Wire Wire Line
	9000 2250 8400 2250
Wire Wire Line
	9000 2450 8400 2450
Wire Wire Line
	9000 2650 8400 2650
Wire Wire Line
	9000 2850 8400 2850
$Comp
L VCC #PWR?
U 1 1 5AEA6A67
P 3100 5550
F 0 "#PWR?" H 3100 5400 50  0001 C CNN
F 1 "VCC" H 3100 5700 50  0000 C CNN
F 2 "" H 3100 5550 50  0000 C CNN
F 3 "" H 3100 5550 50  0000 C CNN
	1    3100 5550
	1    0    0    -1  
$EndComp
NoConn ~ 6550 3250
NoConn ~ 6550 3350
NoConn ~ 6550 3450
NoConn ~ 6550 3550
NoConn ~ 6550 3650
NoConn ~ 6550 3750
NoConn ~ 6550 3850
NoConn ~ 6550 3950
NoConn ~ 6550 4100
NoConn ~ 6550 4200
NoConn ~ 6550 2900
$Comp
L R R?
U 1 1 5B00459A
P 2600 6950
F 0 "R?" V 2680 6950 50  0000 C CNN
F 1 "R" V 2600 6950 50  0000 C CNN
F 2 "" V 2530 6950 50  0000 C CNN
F 3 "" H 2600 6950 50  0000 C CNN
	1    2600 6950
	0    1    1    0   
$EndComp
$Comp
L R R?
U 1 1 5B0045F8
P 2400 7250
F 0 "R?" V 2480 7250 50  0000 C CNN
F 1 "R" V 2400 7250 50  0000 C CNN
F 2 "" V 2330 7250 50  0000 C CNN
F 3 "" H 2400 7250 50  0000 C CNN
	1    2400 7250
	1    0    0    -1  
$EndComp
$Comp
L D D?
U 1 1 5B004630
P 3100 6300
F 0 "D?" H 3100 6400 50  0000 C CNN
F 1 "D" H 3100 6200 50  0000 C CNN
F 2 "" H 3100 6300 50  0000 C CNN
F 3 "" H 3100 6300 50  0000 C CNN
	1    3100 6300
	0    1    1    0   
$EndComp
$Comp
L Q_NPN_BCE Q?
U 1 1 5B0046B1
P 3000 6950
F 0 "Q?" H 3300 7000 50  0000 R CNN
F 1 "Q_NPN_BCE" H 3600 6900 50  0000 R CNN
F 2 "" H 3200 7050 50  0000 C CNN
F 3 "" H 3000 6950 50  0000 C CNN
	1    3000 6950
	1    0    0    -1  
$EndComp
Wire Wire Line
	7800 3450 7800 3850
Wire Wire Line
	7800 2950 7800 3100
Wire Wire Line
	7800 3100 7800 3150
Wire Wire Line
	6550 3100 7800 3100
Connection ~ 7800 3100
Wire Wire Line
	7800 3450 8100 3450
Wire Wire Line
	8100 3450 9000 3450
Connection ~ 8100 3450
Text Label 6550 3000 0    60   ~ 0
POWER_OUT_ENABLE
Wire Wire Line
	3100 6750 3100 6450
Wire Wire Line
	3100 6450 3400 6450
Wire Wire Line
	3400 6350 3300 6350
Wire Wire Line
	3300 6350 3300 6150
Wire Wire Line
	3100 6150 3300 6150
Wire Wire Line
	3300 6150 3400 6150
Wire Wire Line
	3100 6150 3100 5550
Connection ~ 3300 6150
Wire Wire Line
	4200 6250 4250 6250
Wire Wire Line
	2750 6950 2800 6950
Wire Wire Line
	2300 6950 2400 6950
Wire Wire Line
	2400 6950 2450 6950
Wire Wire Line
	2400 7100 2400 6950
Connection ~ 2400 6950
Text Label 2300 6950 2    60   ~ 0
POWER_OUT_ENABLE
$Comp
L GND #PWR?
U 1 1 5B009A0E
P 3100 7600
F 0 "#PWR?" H 3100 7350 50  0001 C CNN
F 1 "GND" H 3100 7450 50  0000 C CNN
F 2 "" H 3100 7600 50  0000 C CNN
F 3 "" H 3100 7600 50  0000 C CNN
	1    3100 7600
	1    0    0    -1  
$EndComp
Wire Wire Line
	3100 7150 3100 7400
Wire Wire Line
	3100 7400 3100 7600
Wire Wire Line
	2400 7400 3100 7400
Wire Wire Line
	3100 7400 4250 7400
Connection ~ 3100 7400
Wire Wire Line
	4250 6250 4250 6850
Wire Wire Line
	4250 7400 4250 6950
Text Notes 4700 6900 0    60   ~ 0
Switched 5v to Clusterboard
Text Notes 1650 4750 0    60   ~ 0
Power supply
$EndSCHEMATC
